Presentación y análisis descriptivo de datos con uso de software R
…
---

## Importando datos

```r
rm(list = ls())
library(readxl)
datos <- read_excel("dato4.xlsx")
datos
```

```
## # A tibble: 50 × 7
##    Numero Sexo  Hermanos  Edad  Peso Ciudad   Puntaje
##     <dbl> <chr>    <dbl> <dbl> <dbl> <chr>      <dbl>
##  1      1 F            1    18    60 Lima          69
##  2      2 F            2    19    58 Arequipa      78
##  3      3 M            0    18    59 Cuzco         68
##  4      4 M            1    20    58 Tacna         69
##  5      5 F            2    21    61 Moquegua      70
##  6      6 M            2    22    62 Lima          68
##  7      7 M            1    20    63 Cuzco         70
##  8      8 F            3    21    58 Cuzco         74
##  9      9 M            1    18    59 Arequipa      75
## 10     10 F            0    19    60 Tacna         75
## # ℹ 40 more rows
```
…
